<?xml version="1.0" encoding="UTF-8" standalone="no"?>
<!-- Created with Inkscape (http://www.inkscape.org/) -->

<svg
   width="9.0000372mm"
   height="8.9958143mm"
   viewBox="0 0 9.0000372 8.9958143"
   version="1.1"
   id="svg12459"
   inkscape:version="1.2.2 (732a01da63, 2022-12-09)"
   sodipodi:docname="combo3.svg"
   xmlns:inkscape="http://www.inkscape.org/namespaces/inkscape"
   xmlns:sodipodi="http://sodipodi.sourceforge.net/DTD/sodipodi-0.dtd"
   xmlns="http://www.w3.org/2000/svg"
   xmlns:svg="http://www.w3.org/2000/svg">
  <sodipodi:namedview
     id="namedview12461"
     pagecolor="#ffffff"
     bordercolor="#000000"
     borderopacity="0.25"
     inkscape:showpageshadow="2"
     inkscape:pageopacity="0.0"
     inkscape:pagecheckerboard="0"
     inkscape:deskcolor="#d1d1d1"
     inkscape:document-units="mm"
     showgrid="false"
     inkscape:zoom="8"
     inkscape:cx="-0.5"
     inkscape:cy="20.5625"
     inkscape:window-width="1419"
     inkscape:window-height="1032"
     inkscape:window-x="208"
     inkscape:window-y="0"
     inkscape:window-maximized="0"
     inkscape:current-layer="layer1"
     showguides="false" />
  <defs
     id="defs12456">
    <clipPath
       clipPathUnits="userSpaceOnUse"
       id="clipPath6845-1">
      <g
         id="g6851-8">
        <g
           id="g6849-36"
           transform="translate(-1.35,1)">
          <path
             d="M 0,32 V 0 H 32 V 32 H 0"
             fill="#ff0000"
             fill-rule="evenodd"
             stroke="none"
             id="path6847-6" />
        </g>
      </g>
    </clipPath>
  </defs>
  <g
     inkscape:label="Calque 1"
     inkscape:groupmode="layer"
     id="layer1"
     transform="translate(-135.22464,-229.80611)"
     style="display:inline">
    <g
       id="use1308"
       transform="matrix(0.26458333,0,0,0.26458333,135.46596,230.07064)"
       style="fill:#ffffff">
      <path
         d="M 0,32 V 0 H 32 V 32 H 0"
         fill="#cccc00"
         fill-rule="evenodd"
         stroke="none"
         id="path1312"
         style="fill:#ffffff;fill-opacity:1" />
    </g>
    <path
       d="m 12.75,7.45 1,-0.65 1.85,2.6 -0.5,0.5 Q 13.4,9.15 12.75,7.45 m 4,5.05 -0.25,0.6 -0.45,0.4 q -0.4,0 -0.55,-0.3 l -0.05,-0.3 q 0,-0.5 0.7,-0.8 0.6,-0.25 0.6,0.4 m 1.6,-2.9 v 0.2 l -0.2,0.6 -0.6,0.45 q -0.55,0 -0.7,-0.6 l 1.5,-0.65"
       fill="#fcf9e0"
       fill-rule="evenodd"
       stroke="none"
       id="path1342"
       clip-path="url(#clipPath6845-1)"
       style="fill:#ffffff"
       transform="matrix(0.26458333,0,0,0.26458333,135.22464,229.80606)" />
    <path
       id="path1466"
       style="fill:#b3b3b3;fill-opacity:1;stroke-width:0.0111957;stroke-dashoffset:14.7"
       d="m 142.69449,230.0617 0.03,0.0734 c 0.0166,0.0403 0.30138,0.80641 0.63303,1.70222 l 0.60307,1.62832 0.005,-0.21807 c 0.004,-0.20087 -0.0189,-0.33436 -0.29249,-1.69551 l -0.29662,-1.47794 -0.34106,-0.006 z m -0.63252,0.001 c -0.13461,0 -0.23977,0.009 -0.23564,0.0201 0.004,0.0111 0.48531,0.832 1.0697,1.82418 0.58439,0.99218 1.06688,1.79961 1.07229,1.79421 0.005,-0.005 -0.36624,-0.82633 -0.82631,-1.82418 l -0.83664,-1.81436 z m -2.92747,0.006 c -1.29306,-0.003 -2.05754,0.003 -2.03657,0.016 0.0185,0.0115 1.57029,0.89698 3.44837,1.96784 1.87808,1.07086 3.41687,1.94823 3.41995,1.94923 0.003,0.001 0.006,-0.0318 0.006,-0.0729 0,-0.0635 -0.20824,-0.35878 -1.38389,-1.96474 l -1.38338,-1.89032 z m -3.56515,2.87321 c -0.037,-0.008 -0.0388,0.0619 -0.0388,1.24282 v 1.25212 l 0.0951,-0.0155 c 0.0523,-0.008 1.94818,-0.29297 4.21318,-0.63252 2.26501,-0.33954 4.1217,-0.62775 4.12585,-0.64027 0.008,-0.025 0.0108,-0.0247 -4.99711,-0.72708 -1.84729,-0.25909 -3.37669,-0.4747 -3.39824,-0.47956 z m 8.38088,1.35806 c -0.005,3.8e-4 -0.011,0.002 -0.0176,0.004 -0.0215,0.008 -1.9207,0.89318 -4.22041,1.96732 l -4.18114,1.95285 -5.2e-4,0.14005 v 0.14004 h 2.02571 2.02624 l 2.1947,-2.07326 c 1.20711,-1.14027 2.19469,-2.08868 2.19469,-2.10736 0,-0.0171 -0.007,-0.0249 -0.0217,-0.0238 z m 0.0165,0.30282 c -0.004,-0.0135 -0.48572,0.75559 -1.06919,1.70894 -0.58346,0.95335 -1.12461,1.83644 -1.20251,1.96267 l -0.14159,0.22996 0.33021,-5.2e-4 0.33073,-5.1e-4 0.88005,-1.93787 c 0.48413,-1.0658 0.8768,-1.94917 0.8723,-1.96267 z m 0.005,0.40824 c -0.003,-0.0321 -1.05213,3.43324 -1.05213,3.47369 0,0.0108 0.0526,0.0193 0.11731,0.0191 h 0.1173 l 0.41031,-1.72961 c 0.22551,-0.95122 0.40867,-1.74472 0.40721,-1.7632 z" />
    <path
       id="path2163"
       style="fill:#ffffff;fill-opacity:1;stroke-width:0.0423145;stroke-dashoffset:14.7"
       sodipodi:type="inkscape:offset"
       inkscape:radius="0.10160109"
       inkscape:original="M 22.914062 10.277344 C 22.638299 10.275144 22.345201 10.317064 22.025391 10.400391 C 20.811467 10.71668 19.777703 11.332618 18.863281 12.285156 C 17.811174 13.381122 17.754384 13.892085 18.505859 15.554688 C 18.865555 16.350503 19.004729 16.567268 19.28125 16.767578 C 19.672974 17.051341 19.755463 17.059531 20.28125 16.871094 C 20.655272 16.737049 20.685007 16.736819 20.945312 16.890625 L 21.21875 17.052734 L 21.949219 16.695312 C 22.807818 16.274777 23.310823 16.164062 24.371094 16.164062 C 25.257526 16.164062 25.297872 16.140723 25.615234 15.441406 C 26.138748 14.287822 25.553495 11.81893 24.548828 10.943359 C 24.039728 10.499676 23.520744 10.282206 22.914062 10.277344 z M 24.203125 16.634766 C 23.217066 16.636266 22.928462 16.666435 22.476562 16.818359 C 21.700163 17.079385 20.914819 17.636894 20.548828 18.185547 C 20.255644 18.625055 20.244308 18.672792 20.205078 19.582031 C 20.180288 20.156364 20.202679 20.661811 20.261719 20.878906 C 20.398257 21.380793 20.719693 21.732905 21.099609 21.796875 C 21.651668 21.889835 21.697441 21.919776 22.390625 22.634766 L 23.074219 23.337891 L 23.722656 23.425781 C 25.311342 23.638409 26.158946 23.407102 26.943359 22.548828 C 27.436443 22.009316 27.65216 21.492992 27.847656 20.380859 C 28.017061 19.417141 27.964536 18.777282 27.667969 18.150391 C 27.123788 17.000088 26.280943 16.631566 24.203125 16.634766 z M 15.298828 17.400391 C 14.978562 17.397191 14.493185 17.420087 13.660156 17.466797 C 12.019807 17.558777 11.71741 17.595874 11.416016 17.751953 C 10.42054 18.267468 10.144811 18.807629 9.9667969 20.599609 C 9.8883219 21.389577 10.229806 22.040582 10.773438 22.138672 C 11.242448 22.223302 11.35301 22.304763 11.664062 22.791016 C 12.040753 23.37988 12.674406 23.927941 13.107422 24.039062 C 13.298738 24.088162 13.494466 24.143066 13.541016 24.160156 C 13.761301 24.241036 14.782488 24.190735 15.214844 24.078125 C 15.815468 23.921682 16.22831 23.66582 16.697266 23.15625 C 17.116399 22.700819 17.276744 22.35779 17.597656 21.242188 C 17.846342 20.377523 17.845744 20.029498 17.591797 19.054688 C 17.385617 18.263109 16.908376 17.808308 15.945312 17.488281 C 15.774423 17.431501 15.619094 17.403601 15.298828 17.400391 z "
       d="m 22.914062,10.175781 c -0.286632,-0.0023 -0.587641,0.0419 -0.914062,0.126953 -1.231448,0.320855 -2.285176,0.94776 -3.210938,1.91211 -0.530883,0.553014 -0.825485,0.977026 -0.880859,1.482422 -0.05537,0.505395 0.128117,1.062701 0.505859,1.898437 0.180448,0.399234 0.306066,0.65661 0.425782,0.84375 0.119715,0.18714 0.235056,0.304538 0.380859,0.410156 0.19823,0.143597 0.334756,0.230995 0.5,0.248047 0.165244,0.01705 0.330781,-0.03591 0.595703,-0.130859 0.186224,-0.06674 0.277591,-0.09342 0.335938,-0.0918 0.05795,0.0016 0.113451,0.02868 0.240234,0.103516 l 0.273438,0.162109 a 0.10161125,0.10161125 0 0 0 0.09766,0.0039 l 0.730469,-0.357422 c 0.850847,-0.416738 1.323755,-0.521484 2.376953,-0.521484 0.444107,0 0.691042,3.62e-4 0.886718,-0.113281 0.195677,-0.113644 0.290044,-0.319176 0.449219,-0.669922 0.278917,-0.614604 0.256717,-1.532824 0.04687,-2.417969 -0.209842,-0.885145 -0.608046,-1.734823 -1.138672,-2.197265 -0.522486,-0.45535 -1.070676,-0.686354 -1.701172,-0.691407 z m 1.289063,6.357422 c -0.988101,0.0015 -1.299332,0.03466 -1.759766,0.189453 -0.798202,0.268357 -1.592922,0.828212 -1.978515,1.40625 -0.147199,0.220664 -0.232963,0.358293 -0.28125,0.554688 -0.04829,0.196394 -0.06045,0.439567 -0.08008,0.894531 -0.02501,0.579532 -0.0073,1.078773 0.06055,1.328125 0.143982,0.529247 0.487108,0.917686 0.917969,0.990234 0.274722,0.04626 0.403448,0.07369 0.554688,0.171875 0.15124,0.09818 0.335333,0.279518 0.68164,0.636719 l 0.683594,0.703125 a 0.10161125,0.10161125 0 0 0 0.05859,0.03125 l 0.648437,0.08789 c 0.801499,0.107272 1.425296,0.102772 1.953125,-0.04102 0.527829,-0.143787 0.954035,-0.429907 1.355469,-0.86914 0.504906,-0.552448 0.732914,-1.099347 0.929688,-2.21875 0.171352,-0.974798 0.118512,-1.644159 -0.1875,-2.291016 -0.278968,-0.58969 -0.648463,-0.995067 -1.208985,-1.240234 -0.560522,-0.245168 -1.302719,-0.335594 -2.347656,-0.333985 z m -8.902344,0.765625 c -0.326133,-0.0033 -0.813105,0.01968 -1.646484,0.06641 -0.820588,0.04601 -1.306477,0.07809 -1.630859,0.119141 -0.324383,0.04105 -0.494198,0.09483 -0.654297,0.177734 -0.507205,0.26266 -0.848029,0.544043 -1.074219,0.988282 -0.22619,0.444239 -0.3402697,1.039327 -0.4296876,1.939453 -0.040942,0.412142 0.027032,0.791018 0.1816406,1.085937 0.154609,0.294919 0.402174,0.507141 0.708984,0.5625 0.230272,0.04155 0.356109,0.07994 0.462891,0.158203 0.106782,0.07826 0.205406,0.208526 0.359375,0.449219 0.194571,0.304164 0.453647,0.595234 0.720703,0.826172 0.267057,0.230938 0.539299,0.402253 0.783203,0.464844 0.189813,0.04871 0.397686,0.109543 0.423828,0.11914 0.08211,0.03015 0.186616,0.03792 0.324219,0.04297 0.137604,0.0051 0.301926,0.0025 0.472656,-0.0059 0.341462,-0.01677 0.706012,-0.0569 0.9375,-0.117188 0.615783,-0.160391 1.05365,-0.432209 1.53125,-0.951172 0.427604,-0.464635 0.601961,-0.836152 0.923828,-1.955078 0.2507,-0.871666 0.249566,-1.259753 -0.0059,-2.240234 -0.213426,-0.819401 -0.732022,-1.310776 -1.712891,-1.636719 -0.17892,-0.05945 -0.349944,-0.09048 -0.675781,-0.09375 z"
       transform="matrix(0.26458333,0,0,0.26458333,135.22464,229.80606)" />
    <path
       style="fill:#000000;stroke-width:0.0112216;stroke-dashoffset:14.7"
       d="m 135.96724,238.11774 c 0.13204,-0.18624 0.26007,-0.47793 0.52698,-1.20072 0.11929,-0.323 0.12884,-0.36315 0.13345,-0.56109 0.004,-0.1508 0.0255,-0.29535 0.0753,-0.49376 0.0458,-0.18268 0.0703,-0.33619 0.0703,-0.44006 l 7e-5,-0.15952 -0.13797,-0.0145 c -0.0759,-0.008 -0.22612,-0.0145 -0.33389,-0.0145 -0.24552,0 -0.25756,-0.0115 -0.25756,-0.24474 0,-0.14583 0.0105,-0.19278 0.073,-0.32472 0.0402,-0.0848 0.10713,-0.20098 0.14879,-0.25811 0.0417,-0.0571 0.11222,-0.17665 0.15681,-0.26562 0.11852,-0.23655 0.27082,-0.37154 0.47419,-0.42032 0.0388,-0.009 0.13879,-0.0848 0.23567,-0.17773 0.0925,-0.0888 0.21711,-0.20371 0.27675,-0.25517 l 0.10841,-0.0936 -0.08,-0.1639 c -0.10987,-0.22505 -0.14803,-0.39257 -0.14803,-0.65005 0,-0.28822 0.0282,-0.41393 0.15004,-0.6677 0.45672,-0.95168 1.78019,-1.09638 2.44104,-0.2669 0.22655,0.28433 0.32591,0.56698 0.32591,0.927 0,0.41075 -0.13316,0.72518 -0.43696,1.03174 l -0.18282,0.18447 0.14602,-0.0369 0.14602,-0.0369 0.0911,-0.17869 c 0.20784,-0.40696 0.39054,-0.58962 0.74911,-0.749 0.31498,-0.13999 0.39551,-0.16196 0.59161,-0.16133 0.18685,5.9e-4 0.33592,0.0614 0.49296,0.20112 0.16479,0.14662 0.23882,0.28371 0.32567,0.60323 0.0925,0.3404 0.0917,0.49618 -0.004,0.73534 -0.0329,0.0821 -0.0562,0.15186 -0.052,0.15494 0.004,0.003 0.0516,0.0182 0.10536,0.0337 0.30009,0.0862 0.50574,0.33941 0.56194,0.69175 0.029,0.18255 -0.0519,0.65657 -0.14301,0.83628 -0.12409,0.24488 -0.33798,0.4133 -0.61503,0.48428 -0.1276,0.0327 -0.16188,0.0325 -0.42901,-0.003 l -0.29032,-0.0384 -0.15736,-0.15737 c -0.0865,-0.0865 -0.16283,-0.1746 -0.16952,-0.19569 -0.009,-0.0278 -0.0465,-0.0419 -0.1374,-0.0513 -0.15617,-0.0162 -0.19141,-0.0476 -0.29216,-0.26123 -0.044,-0.0933 -0.0873,-0.18439 -0.0964,-0.2024 -0.0149,-0.0296 -0.33079,-0.10544 -0.35181,-0.0843 -0.005,0.005 -0.0427,0.15575 -0.0848,0.33596 -0.0832,0.35642 -0.13082,0.45118 -0.30643,0.60987 -0.13456,0.12154 -0.31234,0.19599 -0.53349,0.2234 -0.16686,0.0206 -0.20974,0.018 -0.37132,-0.0238 -0.10043,-0.0259 -0.18391,-0.0457 -0.18539,-0.044 -10e-4,0.002 -0.0143,0.35167 -0.0283,0.77754 -0.0142,0.42587 -0.0319,0.88288 -0.0395,1.01558 l -0.0139,0.24127 c -2.75477,0.003 0,0 -2.75477,0.003 l 0.0495,-0.007 c 0.0322,-0.005 0.0939,-0.0698 0.1768,-0.18673 z m 1.81461,0.0817 c 0.0474,-0.10117 0.0513,-0.14153 0.0543,-0.55918 0.002,-0.24757 -0.002,-0.4553 -0.008,-0.46162 -0.0182,-0.0182 -0.4301,-0.0855 -0.44324,-0.0725 -0.007,0.007 -0.0707,0.25701 -0.14268,0.55663 -0.0719,0.2996 -0.13635,0.56748 -0.14308,0.59525 l -0.0123,0.0505 h 0.32202 0.32202 z m 1.42742,-1.98021 c 0.16611,-0.0306 0.27887,-0.0876 0.40702,-0.20586 0.1386,-0.12775 0.19355,-0.23322 0.27757,-0.53274 l 0.0724,-0.25809 -0.0351,-0.23206 c -0.0501,-0.33122 -0.15472,-0.46035 -0.45468,-0.56132 -0.12825,-0.0432 -0.15254,-0.0438 -0.6391,-0.0169 -0.56705,0.0314 -0.63698,0.0505 -0.80845,0.22208 -0.11081,0.11079 -0.14977,0.23661 -0.16837,0.54355 -0.0124,0.20331 -0.008,0.26286 0.022,0.33583 0.0541,0.12953 0.0957,0.16515 0.21186,0.18197 0.12305,0.0178 0.14929,0.0359 0.19652,0.13535 0.053,0.11172 0.20445,0.27401 0.30226,0.32391 0.15395,0.0786 0.39995,0.10419 0.61598,0.0642 z m 2.93093,-0.23022 c 0.14092,-0.067 0.30451,-0.22825 0.37805,-0.37242 0.0561,-0.10999 0.13532,-0.49915 0.13532,-0.66487 0,-0.22797 -0.10237,-0.45905 -0.26144,-0.59017 -0.10591,-0.0872 -0.23423,-0.13068 -0.4792,-0.16202 -0.54966,-0.0703 -1.12043,0.12384 -1.28539,0.43736 -0.04,0.0761 -0.0499,0.13985 -0.0572,0.37062 -0.0101,0.30693 0.01,0.41058 0.0983,0.51548 0.045,0.0535 0.0807,0.0698 0.17893,0.0821 0.11309,0.0142 0.12875,0.0234 0.19955,0.11936 0.0423,0.0572 0.11839,0.14444 0.16916,0.1938 0.0846,0.0824 0.10755,0.0918 0.27665,0.11608 0.28645,0.0409 0.49725,0.026 0.64728,-0.0453 z m -1.48442,-1.48433 c 0.0417,-0.043 0.0689,-0.085 0.0606,-0.0933 -0.008,-0.008 -0.076,0.003 -0.15024,0.0257 -0.16112,0.0488 -0.17407,0.044 -0.4072,-0.15179 l -0.1546,-0.12982 -0.28045,0.072 -0.28044,0.072 0.15934,0.0738 c 0.1123,0.052 0.26312,0.0932 0.51091,0.13948 0.45775,0.0855 0.45108,0.0855 0.54203,-0.008 z m 0.59654,-0.35036 c 0.10914,-0.0389 0.18007,-0.0469 0.39278,-0.0444 0.29528,0.003 0.29743,0.002 0.383,-0.18994 0.0808,-0.18167 0.0811,-0.39776 8.5e-4,-0.69912 -0.15697,-0.58966 -0.50965,-0.81455 -1.02821,-0.65562 -0.28718,0.0879 -0.53978,0.23654 -0.73927,0.43471 -0.32727,0.32512 -0.35891,0.48785 -0.17647,0.90777 0.16257,0.37419 0.29005,0.47366 0.507,0.39564 0.10573,-0.038 0.11095,-0.0379 0.17968,0.006 l 0.0707,0.0448 0.13832,-0.0761 c 0.0761,-0.0418 0.19828,-0.0974 0.27152,-0.1235 z m -2.91283,-0.23797 c 0.2302,-0.0579 0.23719,-0.0614 0.16204,-0.0809 -0.0432,-0.0113 -0.13626,-0.0387 -0.20679,-0.0611 -0.12706,-0.0404 -0.12883,-0.0403 -0.19077,0.007 -0.0344,0.026 -0.0651,0.0489 -0.0682,0.0508 -0.0152,0.009 0.0251,0.1453 0.0429,0.1453 0.0112,0 0.12857,-0.0272 0.2609,-0.0605 z m 1.21011,-0.58742 c 0.0829,-0.0758 0.13963,-0.23443 0.10392,-0.29112 -0.0468,-0.0744 -0.16475,-0.0606 -0.27497,0.0322 -0.0576,0.0484 -0.069,0.0743 -0.069,0.15583 0,0.0756 0.0114,0.10566 0.0499,0.13267 0.071,0.0498 0.11001,0.0438 0.19023,-0.0294 z m 0.41006,-0.69807 c 0.0593,-0.047 0.0927,-0.097 0.11294,-0.16897 0.0157,-0.0562 0.0231,-0.10768 0.0163,-0.1144 -0.0149,-0.015 -0.39374,0.14563 -0.41154,0.17444 -0.0186,0.0302 0.0532,0.13011 0.11029,0.15306 0.0738,0.0297 0.0809,0.0279 0.17193,-0.0441 z m -0.66823,-0.26284 c 0.0346,-0.0332 0.0629,-0.0683 0.0629,-0.0782 0,-0.0152 -0.42147,-0.61892 -0.47307,-0.67777 -0.009,-0.0108 -0.0793,0.0182 -0.15533,0.0644 -0.12441,0.0756 -0.13676,0.0896 -0.12377,0.14147 0.0236,0.0942 0.1231,0.24765 0.23483,0.36236 0.0956,0.098 0.31849,0.24732 0.37022,0.24783 0.0117,1.1e-4 0.0495,-0.0269 0.0842,-0.0601 z"
       id="path804"
       sodipodi:nodetypes="cccccccssccccccccsccsccccccccccccccccccccsccccccccccccccccccccccccccccsccccccccccccsccccccccccccscccccccccccccccccccccccccccscccccscccccccccccsccccccc" />
    <path
       d="m 135.48922,229.80611 c -0.14612,1e-5 -0.26457,0.11846 -0.26458,0.26458 v 8.46667 c 1e-5,0.14612 0.11846,0.26457 0.26458,0.26458 h 8.46667 c 0.14612,-1e-5 0.26457,-0.11846 0.26458,-0.26458 v -8.46667 c -1e-5,-0.14612 -0.11846,-0.26457 -0.26458,-0.26458 z m 0.26458,0.52917 h 7.93751 v 7.9375 h -7.93751 z"
       style="color:#000000;fill:#000000;fill-opacity:1;stroke-width:0.264583;stroke-linecap:round;stroke-linejoin:round;-inkscape-stroke:none"
       id="path2565" />
  </g>
</svg>
