<?xml version="1.0" encoding="UTF-8" standalone="no"?>
<svg
   width="34"
   height="34"
   version="1.1"
   id="svg1492"
   sodipodi:docname="felineAgility.svg"
   inkscape:version="1.2.2 (732a01da63, 2022-12-09)"
   xmlns:inkscape="http://www.inkscape.org/namespaces/inkscape"
   xmlns:sodipodi="http://sodipodi.sourceforge.net/DTD/sodipodi-0.dtd"
   xmlns:xlink="http://www.w3.org/1999/xlink"
   xmlns="http://www.w3.org/2000/svg"
   xmlns:svg="http://www.w3.org/2000/svg">
  <sodipodi:namedview
     id="namedview1494"
     pagecolor="#ffffff"
     bordercolor="#666666"
     borderopacity="1.0"
     inkscape:showpageshadow="2"
     inkscape:pageopacity="0.0"
     inkscape:pagecheckerboard="0"
     inkscape:deskcolor="#d1d1d1"
     showgrid="false"
     inkscape:zoom="9.8163059"
     inkscape:cx="49.407588"
     inkscape:cy="15.942861"
     inkscape:window-width="1680"
     inkscape:window-height="975"
     inkscape:window-x="-9"
     inkscape:window-y="-9"
     inkscape:window-maximized="1"
     inkscape:current-layer="svg1492" />
  <g
     id="use1308-1"
     transform="translate(0.84743263,1.2076401)"
     style="display:inline;fill:#b3b3b3;fill-opacity:1">
    <path
       d="M 0,32 V 0 H 32 V 32 H 0"
       fill="#cccc00"
       fill-rule="evenodd"
       stroke="none"
       id="path1312-0"
       style="fill:#b3b3b3;fill-opacity:1" />
  </g>
  <path
     id="path1698"
     style="fill:#ffffff;fill-opacity:1"
     d="m 23.550781,9.8007812 c -0.266666,0 -0.501172,0.7829448 -0.701172,2.3496098 -0.166666,1.599998 -0.25,3.516669 -0.25,5.75 0,2.233331 0.08333,4.132553 0.25,5.699218 0.2,1.566665 0.434506,2.34961 0.701172,2.34961 0.266667,0 0.481771,-0.782945 0.648438,-2.34961 L 24.5,17.900391 l -0.300781,-5.75 C 24.032552,10.583726 23.817448,9.8007812 23.550781,9.8007812 Z M 5.4003906,12.150391 c -0.2666664,0 -0.5011721,0.782944 -0.7011718,2.349609 -0.1666665,1.599998 -0.25,3.516669 -0.25,5.75 0,2.233331 0.083333,4.132554 0.25,5.699219 0.1999997,1.566665 0.4345054,2.351562 0.7011718,2.351562 0.2666664,0 0.4837241,-0.784897 0.6503906,-2.351562 L 6.3496094,20.25 6.0507812,14.5 C 5.8841147,12.933335 5.667057,12.150391 5.4003906,12.150391 Z m 6.6503904,4 c -0.266666,0 -0.501172,0.782944 -0.701172,2.349609 -0.166666,1.599998 -0.25,3.516669 -0.25,5.75 0,2.233331 0.08333,4.132554 0.25,5.699219 0.2,1.566665 0.434506,2.351562 0.701172,2.351562 0.266667,0 0.481771,-0.784897 0.648438,-2.351562 L 13,24.25 12.699219,18.5 c -0.166667,-1.566665 -0.381771,-2.349609 -0.648438,-2.349609 z m 17,0.25 c -0.266666,0 -0.501172,0.782944 -0.701172,2.349609 -0.166666,1.599998 -0.25,3.516669 -0.25,5.75 0,2.233331 0.08333,4.132554 0.25,5.699219 0.2,1.566665 0.434506,2.351562 0.701172,2.351562 0.266667,0 0.481771,-0.784897 0.648438,-2.351562 L 30,24.5 29.699219,18.75 c -0.166667,-1.566665 -0.381771,-2.349609 -0.648438,-2.349609 z" />
  <path
     id="path1700"
     d="m 24.494141,2.7871094 c -0.04795,-5.074e-4 -0.09521,-1.604e-4 -0.144532,0.00391 -0.405869,0.04588 -0.739793,0.2223251 -1,0.5292969 -0.0037,0.00442 -0.0061,0.00923 -0.0098,0.013672 -0.152903,0.075893 -0.292834,0.1805292 -0.419922,0.3164062 L 20.353516,6.3925781 C 20.163601,5.9777356 19.897464,5.5966825 19.550781,5.25 18.784115,4.4833341 17.867447,4.0996094 16.800781,4.0996094 15.700782,4.0996094 14.766666,4.4833341 14,5.25 13.544193,5.7265255 13.231091,6.2677444 13.058594,6.8730469 L 10.074219,3.6835938 C 9.9627787,3.5644495 9.8415988,3.4690107 9.7109375,3.3945312 9.7010209,3.3821632 9.6920074,3.3696555 9.6816406,3.3574219 9.4130015,3.0404061 9.0694827,2.8579833 8.6503906,2.8105469 8.5994642,2.8063402 8.5475608,2.8041708 8.4980469,2.8046875 8.1514483,2.8083042 7.8398887,2.9290031 7.5625,3.1640625 L 3.2011719,6.859375 C 2.8841561,7.1280141 2.7074814,7.4675879 2.6738281,7.875 2.6682637,7.9816619 2.6724747,8.0836126 2.6855469,8.1835938 2.5948932,8.4384035 2.5507812,8.7103234 2.5507812,9 c 1e-7,0.6333315 0.2151054,1.166277 0.6484376,1.599609 0.4333318,0.466667 0.9682312,0.701172 1.6015624,0.701172 0.6666648,0 1.2151054,-0.234505 1.6484376,-0.701172 C 6.915884,10.166277 7.1503906,9.6333315 7.1503906,9 c 0,-0.4552069 -0.1222013,-0.8672212 -0.3632812,-1.2363281 l 1.6640625,-1.4101563 3.3339841,3.5625 c 0.261308,0.2793714 0.574647,0.4348464 0.941406,0.4687504 l 1.257813,6.017578 -1.183594,4.148437 c -0.133333,0.4 -0.0849,0.766277 0.148438,1.09961 l 0.5,0.548828 0.75,2.550781 c 0.1,0.333333 0.317063,0.565886 0.65039,0.699219 0.333333,0.133333 0.717058,0.133333 1.150391,0 l 0.949219,-0.59961 0.25,-0.90039 -1.048828,-3.648438 0.648437,-2.33789 0.208984,-0.03125 0.457032,3.597656 c 0.02572,0.202316 0.08414,0.384758 0.173828,0.548828 -0.111117,0.231864 -0.157162,0.48736 -0.136719,0.765625 l 0.427735,5.814453 c 0.03104,0.422586 0.203958,0.770596 0.519531,1.042969 0.315566,0.27237 0.684835,0.392375 1.107422,0.361328 0.422579,-0.03105 0.779566,-0.204568 1.070312,-0.521484 0.272377,-0.315573 0.392382,-0.684843 0.361328,-1.107422 l -0.427734,-5.814453 c -0.01715,-0.233456 -0.07961,-0.443249 -0.183594,-0.63086 0.124908,-0.258065 0.169792,-0.539458 0.130859,-0.845703 l -0.734374,-5.785156 c -0.02116,-0.166444 -0.06647,-0.318384 -0.13086,-0.458984 l 1.158203,-4.298829 0.04883,-0.40039 c 0.0069,-0.06889 0.008,-0.13726 0.0078,-0.2050784 0.147452,-0.075349 0.283055,-0.1768791 0.40625,-0.3085937 L 24.519531,6.2050781 26.378906,7.78125 C 26.02695,8.1895843 25.849609,8.6792234 25.849609,9.25 c 0,0.5999976 0.217058,1.11745 0.650391,1.550781 0.433333,0.433333 0.96628,0.648438 1.599609,0.648438 0.6,0 1.117449,-0.215105 1.550782,-0.648438 0.43333,-0.433331 0.65039,-0.9507834 0.65039,-1.550781 0,-0.3763659 -0.07744,-0.7177013 -0.230469,-1.0234375 0.05031,-0.1666794 0.07424,-0.343079 0.06445,-0.53125 C 30.102232,7.3007545 29.931973,6.975049 29.625,6.7148438 L 25.400391,3.1328125 C 25.131789,2.9051327 24.829796,2.7906611 24.494141,2.7871094 Z" />
  <path
     fill="#fcf9e0"
     fill-rule="evenodd"
     stroke="none"
     d="m 15.05,8.5 q 0.75,0.2 0.75,0.6 0,0.55 -0.75,0.55 -0.75,0 -0.75,-0.7 0,-0.7 0.75,-0.45 m 3.85,1.1 q -0.4,0.3 -0.8,0.2 -0.45,-0.1 -0.45,-0.55 0,-0.65 0.9,-0.65 0.55,0 0.65,0.35 L 18.9,9.6"
     id="path1748"
     style="fill:#ffffff" />
  <defs
     id="defs1490">
    <g
       id="sprite0"
       transform="matrix(1.0, 0.0, 0.0, 1.0, 1.0, 1.0)">
      <use
         width="34"
         height="34"
         transform="matrix(1.0, 0.0, 0.0, 1.0, -1.0, -1.0)"
         xlink:href="#sprite1"
         id="use1436" />
      <use
         width="18.9"
         height="25.4"
         transform="matrix(1.0, 0.0, 0.0, 1.0, 10.1, 6.15)"
         xlink:href="#shape1"
         id="use1438" />
      <use
         width="5.55"
         height="16.05"
         transform="matrix(-0.3959, 0.3703, -0.3703, -0.3959, 14.0, 7.95)"
         xlink:href="#sprite2"
         id="use1440" />
      <use
         width="5.55"
         height="16.05"
         transform="matrix(0.3504, 0.4135, -0.4135, 0.3504, 7.7, 1.2)"
         xlink:href="#sprite2"
         id="use1442" />
      <use
         width="5.55"
         height="16.05"
         transform="matrix(0.3834, 0.3586, 0.3586, -0.3834, 17.15, 7.75)"
         xlink:href="#sprite2"
         id="use1444" />
      <use
         width="5.55"
         height="16.05"
         transform="matrix(-0.3394, 0.4004, 0.4004, 0.3394, 23.3, 1.2)"
         xlink:href="#sprite2"
         id="use1446" />
      <use
         width="5.55"
         height="16.05"
         transform="matrix(-0.5483, 0.0697, -0.0697, -0.5483, 19.7, 21.65)"
         xlink:href="#sprite2"
         id="use1448" />
      <use
         width="27.75"
         height="7.8"
         transform="matrix(1.0, 0.0, 0.0, 1.0, 1.55, 3.1)"
         xlink:href="#shape3"
         id="use1450" />
      <use
         width="5.55"
         height="16.05"
         transform="matrix(-0.5512, 0.0405, -0.0405, -0.5512, 20.1, 28.95)"
         xlink:href="#sprite2"
         id="use1452" />
      <use
         width="1.9"
         height="16.15"
         transform="matrix(1.0, 0.0, 0.0, 1.0, 3.45, 11.15)"
         xlink:href="#shape4"
         id="use1454" />
    </g>
    <g
       id="sprite1"
       transform="matrix(1.0, 0.0, 0.0, 1.0, 1.0, 1.0)">
      <use
         width="34"
         height="34"
         transform="matrix(1.0, 0.0, 0.0, 1.0, -1.0, -1.0)"
         xlink:href="#shape0"
         id="use1457" />
    </g>
    <g
       id="shape0">
      <path
         fill="#cc0"
         fill-rule="evenodd"
         stroke="none"
         d="M0.0 32.0 L0.0 0.0 32.0 0.0 32.0 32.0 0.0 32.0"
         transform="matrix(1.0, 0.0, 0.0, 1.0, 1.0, 1.0)"
         id="path1460" />
      <path
         fill="none"
         stroke="#733c2f"
         stroke-linecap="round"
         stroke-linejoin="round"
         stroke-width="2"
         d="M0.0 32.0 L0.0 0.0 32.0 0.0 32.0 32.0 0.0 32.0 Z"
         transform="matrix(1.0, 0.0, 0.0, 1.0, 1.0, 1.0)"
         id="path1462" />
    </g>
    <g
       id="shape1">
      <path
         fill="#fcf9e0"
         fill-rule="evenodd"
         stroke="none"
         d="M22.55 8.8 Q22.95 8.8 23.2 11.15 L23.5 16.9 23.2 22.6 Q22.95 24.95 22.55 24.95 22.15 24.95 21.85 22.6 21.6 20.25 21.6 16.9 21.6 13.55 21.85 11.15 22.15 8.8 22.55 8.8 M29.0 23.5 L28.7 29.2 Q28.45 31.55 28.05 31.55 27.65 31.55 27.35 29.2 27.1 26.85 27.1 23.5 27.1 20.15 27.35 17.75 27.65 15.4 28.05 15.4 28.45 15.4 28.7 17.75 L29.0 23.5 M11.05 15.15 Q11.45 15.15 11.7 17.5 L12.0 23.25 11.7 28.95 Q11.45 31.3 11.05 31.3 10.65 31.3 10.35 28.95 10.1 26.6 10.1 23.25 10.1 19.9 10.35 17.5 10.65 15.15 11.05 15.15"
         transform="matrix(1.0, 0.0, 0.0, 1.0, -10.1, -6.15)"
         id="path1465" />
      <path
         fill="#733c2f"
         fill-rule="evenodd"
         stroke="none"
         d="M14.15 13.0 L15.3 12.85 Q15.95 13.05 16.25 13.6 16.6 14.15 16.4 14.8 L15.15 19.3 16.2 22.95 15.95 23.85 15.0 24.45 Q14.35 24.65 13.85 24.45 13.35 24.25 13.2 23.75 L12.45 21.2 11.95 20.65 Q11.6 20.15 11.8 19.55 L13.4 13.95 Q13.6 13.3 14.15 13.0"
         transform="matrix(1.0, 0.0, 0.0, 1.0, -10.1, -6.15)"
         id="path1467" />
      <path
         fill="#733c2f"
         fill-rule="evenodd"
         stroke="none"
         d="M15.85 6.25 Q17.7 6.3 19.05 7.35 19.95 8.2 19.85 9.2 L19.8 9.6 18.05 16.1 17.2 16.75 15.55 17.0 13.95 16.65 Q13.15 16.35 13.1 15.95 L11.7 9.25 Q11.5 7.95 12.65 7.0 13.6 6.1 15.45 6.25 15.5 6.15 15.6 6.15 L15.85 6.25"
         transform="matrix(1.0, 0.0, 0.0, 1.0, -10.1, -6.15)"
         id="path1469" />
    </g>
    <g
       id="sprite2"
       transform="matrix(1.0, 0.0, 0.0, 1.0, 0.0, 0.0)">
      <use
         width="5.55"
         height="16.05"
         transform="matrix(1.0, 0.0, 0.0, 1.0, 0.0, 0.0)"
         xlink:href="#shape2"
         id="use1472" />
    </g>
    <g
       id="shape2">
      <path
         fill="#733c2f"
         fill-rule="evenodd"
         stroke="none"
         d="M0.0 2.75 Q0.0 1.6 0.8 0.8 1.65 0.0 2.8 0.0 3.95 0.0 4.75 0.8 5.55 1.6 5.55 2.75 L5.55 13.3 Q5.55 14.45 4.75 15.25 3.95 16.05 2.8 16.05 1.65 16.05 0.8 15.25 0.0 14.45 0.0 13.3 L0.0 2.75"
         transform="matrix(1.0, 0.0, 0.0, 1.0, 0.0, 0.0)"
         id="path1475" />
    </g>
    <g
       id="shape3">
      <path
         fill="#733c2f"
         fill-rule="evenodd"
         stroke="none"
         d="M18.55 9.75 Q17.4 10.9 15.8 10.9 14.15 10.9 13.0 9.75 11.9 8.65 11.9 7.05 11.9 5.4 13.0 4.25 14.15 3.1 15.8 3.1 17.4 3.1 18.55 4.25 19.7 5.4 19.7 7.05 19.7 8.65 18.55 9.75"
         transform="matrix(1.0, 0.0, 0.0, 1.0, -1.55, -3.1)"
         id="path1478" />
      <path
         fill="#fcf9e0"
         fill-rule="evenodd"
         stroke="none"
         d="M14.05 7.5 Q14.8 7.7 14.8 8.1 14.8 8.65 14.05 8.65 13.3 8.65 13.3 7.95 13.3 7.25 14.05 7.5 M17.9 8.6 Q17.5 8.9 17.1 8.8 16.65 8.7 16.65 8.25 16.65 7.6 17.55 7.6 18.1 7.6 18.2 7.95 L17.9 8.6"
         transform="matrix(1.0, 0.0, 0.0, 1.0, -1.55, -3.1)"
         id="path1480" />
      <path
         fill="#733c2f"
         fill-rule="evenodd"
         stroke="none"
         d="M5.45 9.6 Q4.8 10.3 3.8 10.3 2.85 10.3 2.2 9.6 1.55 8.95 1.55 8.0 1.55 7.05 2.2 6.35 2.85 5.7 3.8 5.7 4.8 5.7 5.45 6.35 6.15 7.05 6.15 8.0 6.15 8.95 5.45 9.6"
         transform="matrix(1.0, 0.0, 0.0, 1.0, -1.55, -3.1)"
         id="path1482" />
      <path
         fill="#733c2f"
         fill-rule="evenodd"
         stroke="none"
         d="M28.65 9.8 Q28.0 10.45 27.1 10.45 26.15 10.45 25.5 9.8 24.85 9.15 24.85 8.25 24.85 7.3 25.5 6.65 26.15 6.0 27.1 6.0 28.0 6.0 28.65 6.65 29.3 7.3 29.3 8.25 29.3 9.15 28.65 9.8"
         transform="matrix(1.0, 0.0, 0.0, 1.0, -1.55, -3.1)"
         id="path1484" />
    </g>
    <g
       id="shape4">
      <path
         fill="#fcf9e0"
         fill-rule="evenodd"
         stroke="none"
         d="M5.05 24.95 Q4.8 27.3 4.4 27.3 4.0 27.3 3.7 24.95 3.45 22.6 3.45 19.25 3.45 15.9 3.7 13.5 4.0 11.15 4.4 11.15 4.8 11.15 5.05 13.5 L5.35 19.25 5.05 24.95"
         transform="matrix(1.0, 0.0, 0.0, 1.0, -3.45, -11.15)"
         id="path1487" />
    </g>
    <clipPath
       clipPathUnits="userSpaceOnUse"
       id="clipPath6845-1">
      <g
         id="g6851-8">
        <g
           id="g6849-36"
           transform="translate(-1.35,1)">
          <path
             d="M 0,32 V 0 H 32 V 32 H 0"
             fill="#ff0000"
             fill-rule="evenodd"
             stroke="none"
             id="path6847-6" />
        </g>
      </g>
    </clipPath>
  </defs>
  <path
     d="M 0.999987,0 C 0.447723,3.8e-5 3.8e-5,0.447723 0,0.999988 v 32.000013 c 3.8e-5,0.552264 0.447723,0.999949 0.999987,0.999987 H 33 c 0.552265,-3.8e-5 0.99995,-0.447723 0.999988,-0.999987 V 0.999988 C 33.99995,0.447723 33.552265,3.8e-5 33,0 Z m 0.999988,2.000013 h 30.000038 v 30 H 1.999975 Z"
     style="color:#000000;display:inline;fill:#000000;fill-opacity:1;stroke-width:0.999999;stroke-linecap:round;stroke-linejoin:round;-inkscape-stroke:none"
     id="path2565-8" />
</svg>
